# Fdb version 3
["pdflatex"] 1654698068 "/home/heitor/Documents/USP/IC/Estudos-Processamento-de-Imagens/Anotações/Anotações.tex" "/home/heitor/Documents/USP/IC/Estudos-Processamento-de-Imagens/Anotações/Anotações.pdf" "Anotações" 1654698069
  "/etc/texmf/web2c/texmf.cnf" 1637618890 475 c0e671620eb5563b2130f56340a5fde8 ""
  "/home/heitor/.texlive2020/texmf-var/fonts/pk/ljfour/jknappen/ec/tcrm1200.600pk" 1641765771 14040 474a0adb257e3934f4131c6481280a0e ""
  "/home/heitor/.texlive2020/texmf-var/fonts/pk/ljfour/jknappen/ec/tcrm1440.600pk" 1654515932 16944 38dd8792706bd595ece01bd0e580a2b3 ""
  "/home/heitor/Documents/USP/IC/Estudos-Processamento-de-Imagens/Anotações/Anotações.aux" 1654698069 22214 3dd880e171727d0cb9f5ac23bbf463b4 ""
  "/home/heitor/Documents/USP/IC/Estudos-Processamento-de-Imagens/Anotações/Anotações.tex" 1654698068 73784 36835e69e09c93906921030c760ed01a ""
  "/usr/share/texlive/texmf-dist/fonts/map/fontname/texfonts.map" 1577235249 3524 cb3e574dea2d1052e39280babc910dc8 ""
  "/usr/share/texlive/texmf-dist/fonts/tfm/jknappen/ec/tcrm1200.tfm" 1136768653 1536 74b7293ec3713bb7fdca8dd1bd1f469c ""
  "/usr/share/texlive/texmf-dist/fonts/tfm/jknappen/ec/tcrm1440.tfm" 1136768653 1536 3290a75021d32d016616fe527bc9884c ""
  "/usr/share/texlive/texmf-dist/fonts/tfm/public/amsfonts/cmextra/cmex7.tfm" 1246382020 1004 54797486969f23fa377b128694d548df ""
  "/usr/share/texlive/texmf-dist/fonts/tfm/public/amsfonts/cmextra/cmex8.tfm" 1246382020 988 bdf658c3bfc2d96d3c8b02cfc1c94c20 ""
  "/usr/share/texlive/texmf-dist/fonts/tfm/public/amsfonts/symbols/msam10.tfm" 1246382020 916 f87d7c45f9c908e672703b83b72241a3 ""
  "/usr/share/texlive/texmf-dist/fonts/tfm/public/amsfonts/symbols/msam7.tfm" 1246382020 928 2dc8d444221b7a635bb58038579b861a ""
  "/usr/share/texlive/texmf-dist/fonts/tfm/public/amsfonts/symbols/msbm10.tfm" 1246382020 908 2921f8a10601f252058503cc6570e581 ""
  "/usr/share/texlive/texmf-dist/fonts/tfm/public/amsfonts/symbols/msbm7.tfm" 1246382020 940 228d6584342e91276bf566bcf9716b83 ""
  "/usr/share/texlive/texmf-dist/fonts/tfm/public/cm/cmbx12.tfm" 1136768653 1324 c910af8c371558dc20f2d7822f66fe64 ""
  "/usr/share/texlive/texmf-dist/fonts/tfm/public/cm/cmex10.tfm" 1136768653 992 662f679a0b3d2d53c1b94050fdaa3f50 ""
  "/usr/share/texlive/texmf-dist/fonts/tfm/public/cm/cmmi10.tfm" 1136768653 1528 abec98dbc43e172678c11b3b9031252a ""
  "/usr/share/texlive/texmf-dist/fonts/tfm/public/cm/cmmi12.tfm" 1136768653 1524 4414a8315f39513458b80dfc63bff03a ""
  "/usr/share/texlive/texmf-dist/fonts/tfm/public/cm/cmmi6.tfm" 1136768653 1512 f21f83efb36853c0b70002322c1ab3ad ""
  "/usr/share/texlive/texmf-dist/fonts/tfm/public/cm/cmmi8.tfm" 1136768653 1520 eccf95517727cb11801f4f1aee3a21b4 ""
  "/usr/share/texlive/texmf-dist/fonts/tfm/public/cm/cmr10.tfm" 1136768653 1296 45809c5a464d5f32c8f98ba97c1bb47f ""
  "/usr/share/texlive/texmf-dist/fonts/tfm/public/cm/cmr12.tfm" 1136768653 1288 655e228510b4c2a1abe905c368440826 ""
  "/usr/share/texlive/texmf-dist/fonts/tfm/public/cm/cmr17.tfm" 1136768653 1292 296a67155bdbfc32aa9c636f21e91433 ""
  "/usr/share/texlive/texmf-dist/fonts/tfm/public/cm/cmr6.tfm" 1136768653 1300 b62933e007d01cfd073f79b963c01526 ""
  "/usr/share/texlive/texmf-dist/fonts/tfm/public/cm/cmr8.tfm" 1136768653 1292 21c1c5bfeaebccffdb478fd231a0997d ""
  "/usr/share/texlive/texmf-dist/fonts/tfm/public/cm/cmsy10.tfm" 1136768653 1124 6c73e740cf17375f03eec0ee63599741 ""
  "/usr/share/texlive/texmf-dist/fonts/tfm/public/cm/cmsy6.tfm" 1136768653 1116 933a60c408fc0a863a92debe84b2d294 ""
  "/usr/share/texlive/texmf-dist/fonts/tfm/public/cm/cmsy8.tfm" 1136768653 1120 8b7d695260f3cff42e636090a8002094 ""
  "/usr/share/texlive/texmf-dist/fonts/type1/public/amsfonts/cm/cmbx12.pfb" 1248133631 32080 340ef9bf63678554ee606688e7b5339d ""
  "/usr/share/texlive/texmf-dist/fonts/type1/public/amsfonts/cm/cmex10.pfb" 1248133631 30251 6afa5cb1d0204815a708a080681d4674 ""
  "/usr/share/texlive/texmf-dist/fonts/type1/public/amsfonts/cm/cmmi10.pfb" 1248133631 36299 5f9df58c2139e7edcf37c8fca4bd384d ""
  "/usr/share/texlive/texmf-dist/fonts/type1/public/amsfonts/cm/cmmi12.pfb" 1248133631 36741 fa121aac0049305630cf160b86157ee4 ""
  "/usr/share/texlive/texmf-dist/fonts/type1/public/amsfonts/cm/cmmi8.pfb" 1248133631 35469 70d41d2b9ea31d5d813066df7c99281c ""
  "/usr/share/texlive/texmf-dist/fonts/type1/public/amsfonts/cm/cmr10.pfb" 1248133631 35752 024fb6c41858982481f6968b5fc26508 ""
  "/usr/share/texlive/texmf-dist/fonts/type1/public/amsfonts/cm/cmr12.pfb" 1248133631 32722 d7379af29a190c3f453aba36302ff5a9 ""
  "/usr/share/texlive/texmf-dist/fonts/type1/public/amsfonts/cm/cmr17.pfb" 1248133631 32362 179c33bbf43f19adbb3825bb4e36e57a ""
  "/usr/share/texlive/texmf-dist/fonts/type1/public/amsfonts/cm/cmr8.pfb" 1248133631 32726 0a1aea6fcd6468ee2cf64d891f5c43c8 ""
  "/usr/share/texlive/texmf-dist/fonts/type1/public/amsfonts/cm/cmsy10.pfb" 1248133631 32569 5e5ddc8df908dea60932f3c484a54c0d ""
  "/usr/share/texlive/texmf-dist/fonts/type1/public/amsfonts/cm/cmsy8.pfb" 1248133631 32626 4f5c1b83753b1dd3a97d1b399a005b4b ""
  "/usr/share/texlive/texmf-dist/fonts/type1/public/amsfonts/symbols/msam10.pfb" 1248133631 31764 459c573c03a4949a528c2cc7f557e217 ""
  "/usr/share/texlive/texmf-dist/tex/context/base/mkii/supp-pdf.mkii" 1461363279 71627 94eb9990bed73c364d7f53f960cc8c5b ""
  "/usr/share/texlive/texmf-dist/tex/generic/atbegshi/atbegshi.sty" 1575674566 24708 5584a51a7101caf7e6bbf1fc27d8f7b1 ""
  "/usr/share/texlive/texmf-dist/tex/generic/babel-portuges/portuges.ldf" 1588627013 6530 1b923f5d0feb3fce1eb9a165d3d79823 ""
  "/usr/share/texlive/texmf-dist/tex/generic/babel/babel.def" 1611697649 117888 66b7eb0f9cd7bd253f76713fb2e2ee4a ""
  "/usr/share/texlive/texmf-dist/tex/generic/babel/babel.sty" 1611697649 37868 ba045e7d3943071ea1a8258e20cd3f09 ""
  "/usr/share/texlive/texmf-dist/tex/generic/babel/txtbabel.def" 1611697649 5230 84624d139fa443f96294434bccf82f8c ""
  "/usr/share/texlive/texmf-dist/tex/generic/bigintcalc/bigintcalc.sty" 1576625341 40635 c40361e206be584d448876bba8a64a3b ""
  "/usr/share/texlive/texmf-dist/tex/generic/bitset/bitset.sty" 1576016050 33961 6b5c75130e435b2bfdb9f480a09a39f9 ""
  "/usr/share/texlive/texmf-dist/tex/generic/etexcmds/etexcmds.sty" 1576625273 7734 b98cbb34c81f667027c1e3ebdbfce34b ""
  "/usr/share/texlive/texmf-dist/tex/generic/gettitlestring/gettitlestring.sty" 1576625223 8371 9d55b8bd010bc717624922fb3477d92e ""
  "/usr/share/texlive/texmf-dist/tex/generic/iftex/iftex.sty" 1583617216 6501 4011d89d9621e0b0901138815ba5ff29 ""
  "/usr/share/texlive/texmf-dist/tex/generic/infwarerr/infwarerr.sty" 1575499628 8356 7bbb2c2373aa810be568c29e333da8ed ""
  "/usr/share/texlive/texmf-dist/tex/generic/intcalc/intcalc.sty" 1576625065 31769 002a487f55041f8e805cfbf6385ffd97 ""
  "/usr/share/texlive/texmf-dist/tex/generic/kvdefinekeys/kvdefinekeys.sty" 1576878844 5412 d5a2436094cd7be85769db90f29250a6 ""
  "/usr/share/texlive/texmf-dist/tex/generic/kvsetkeys/kvsetkeys.sty" 1576624944 13807 952b0226d4efca026f0e19dd266dcc22 ""
  "/usr/share/texlive/texmf-dist/tex/generic/ltxcmds/ltxcmds.sty" 1600895880 17859 4409f8f50cd365c68e684407e5350b1b ""
  "/usr/share/texlive/texmf-dist/tex/generic/pdfescape/pdfescape.sty" 1576015897 19007 15924f7228aca6c6d184b115f4baa231 ""
  "/usr/share/texlive/texmf-dist/tex/generic/pdftexcmds/pdftexcmds.sty" 1593379760 20089 80423eac55aa175305d35b49e04fe23b ""
  "/usr/share/texlive/texmf-dist/tex/generic/uniquecounter/uniquecounter.sty" 1576624663 7008 f92eaa0a3872ed622bbf538217cd2ab7 ""
  "/usr/share/texlive/texmf-dist/tex/latex/amsfonts/amsfonts.sty" 1359763108 5949 3f3fd50a8cc94c3d4cbf4fc66cd3df1c ""
  "/usr/share/texlive/texmf-dist/tex/latex/amsfonts/amssymb.sty" 1359763108 13829 94730e64147574077f8ecfea9bb69af4 ""
  "/usr/share/texlive/texmf-dist/tex/latex/amsfonts/umsa.fd" 1359763108 961 6518c6525a34feb5e8250ffa91731cff ""
  "/usr/share/texlive/texmf-dist/tex/latex/amsfonts/umsb.fd" 1359763108 961 d02606146ba5601b5645f987c92e6193 ""
  "/usr/share/texlive/texmf-dist/tex/latex/amsmath/amsbsy.sty" 1523134290 2211 ca7ce284ab93c8eecdc6029dc5ccbd73 ""
  "/usr/share/texlive/texmf-dist/tex/latex/amsmath/amsgen.sty" 1523134290 4161 7f6eb9092061a11f87d08ed13515b48d ""
  "/usr/share/texlive/texmf-dist/tex/latex/amsmath/amsmath.sty" 1601675358 87353 2c21ff5f2e32e1bf714e600924d810db ""
  "/usr/share/texlive/texmf-dist/tex/latex/amsmath/amsopn.sty" 1523134290 4116 32e6abd27229755a83a8b7f18e583890 ""
  "/usr/share/texlive/texmf-dist/tex/latex/amsmath/amstext.sty" 1523134290 2432 8ff93b1137020e8f21930562a874ae66 ""
  "/usr/share/texlive/texmf-dist/tex/latex/atveryend/atveryend.sty" 1576191570 19336 ce7ae9438967282886b3b036cfad1e4d ""
  "/usr/share/texlive/texmf-dist/tex/latex/auxhook/auxhook.sty" 1576625391 3935 57aa3c3e203a5c2effb4d2bd2efbc323 ""
  "/usr/share/texlive/texmf-dist/tex/latex/base/article.cls" 1601675358 20145 aad8c3dd3bc36e260347b84002182bc2 ""
  "/usr/share/texlive/texmf-dist/tex/latex/base/atbegshi-ltx.sty" 1609451599 2973 00085839f5881178c538db5970d3c38e ""
  "/usr/share/texlive/texmf-dist/tex/latex/base/atveryend-ltx.sty" 1610149055 2596 b3a02e33035865e9f0457e064d436fb8 ""
  "/usr/share/texlive/texmf-dist/tex/latex/base/inputenc.sty" 1601675358 5050 0d3b77275060ca09a40635b830c3c904 ""
  "/usr/share/texlive/texmf-dist/tex/latex/base/size12.clo" 1601675358 8450 6fd3588c0e9d06f6f56c6cf4f7246466 ""
  "/usr/share/texlive/texmf-dist/tex/latex/contour/contour.cfg" 1137110011 1094 81b59058e250cbe26694be3c10a3fbc1 ""
  "/usr/share/texlive/texmf-dist/tex/latex/contour/contour.sty" 1137110011 4239 0dd461542a0e7e6c86cfb517846535ee ""
  "/usr/share/texlive/texmf-dist/tex/latex/contour/pdftex.cnt" 1137110011 993 fb849d7c69ce6e6c88ee6a950523cec8 ""
  "/usr/share/texlive/texmf-dist/tex/latex/epstopdf-pkg/epstopdf-base.sty" 1579991033 13886 d1306dcf79a944f6988e688c1785f9ce ""
  "/usr/share/texlive/texmf-dist/tex/latex/graphics-cfg/color.cfg" 1459978653 1213 620bba36b25224fa9b7e1ccb4ecb76fd ""
  "/usr/share/texlive/texmf-dist/tex/latex/graphics-cfg/graphics.cfg" 1465944070 1224 978390e9c2234eab29404bc21b268d1e ""
  "/usr/share/texlive/texmf-dist/tex/latex/graphics-def/pdftex.def" 1601931164 19103 48d29b6e2a64cb717117ef65f107b404 ""
  "/usr/share/texlive/texmf-dist/tex/latex/graphics/color.sty" 1601675358 7102 5b27b7e61091c6128cd6300e21704e4b ""
  "/usr/share/texlive/texmf-dist/tex/latex/graphics/dvipsnam.def" 1580683321 4944 1ddc361527c0bcf3d7b9f9b0c3c28113 ""
  "/usr/share/texlive/texmf-dist/tex/latex/graphics/graphics.sty" 1601675358 18272 a8c6a275b34ab6717ceeb8fa04b104e2 ""
  "/usr/share/texlive/texmf-dist/tex/latex/graphics/graphicx.sty" 1601675358 7919 20fdfdd783821971c55bc8ee918cbe63 ""
  "/usr/share/texlive/texmf-dist/tex/latex/graphics/keyval.sty" 1580683321 2590 e3b24ff953e5b58d924f163d25380312 ""
  "/usr/share/texlive/texmf-dist/tex/latex/graphics/trig.sty" 1580683321 3976 d7fa7d81d2870d509d25b17d0245e735 ""
  "/usr/share/texlive/texmf-dist/tex/latex/hycolor/hycolor.sty" 1580250785 17914 4c28a13fc3d975e6e81c9bea1d697276 ""
  "/usr/share/texlive/texmf-dist/tex/latex/hyperref/hpdftex.def" 1589664343 50570 2e81797743231d9037b0cbe3436d74ba ""
  "/usr/share/texlive/texmf-dist/tex/latex/hyperref/hyperref.sty" 1589664343 236775 8ab18a05f69e6caef423fa59cb0af03b ""
  "/usr/share/texlive/texmf-dist/tex/latex/hyperref/nameref.sty" 1579642962 13244 0070bcab7b5a88187847128d22faf4d8 ""
  "/usr/share/texlive/texmf-dist/tex/latex/hyperref/pd1enc.def" 1589664343 14134 c11767c54bd7ecab56984ee4e4e3158c ""
  "/usr/share/texlive/texmf-dist/tex/latex/kvoptions/kvoptions.sty" 1602274869 22521 d2fceb764a442a2001d257ef11db7618 ""
  "/usr/share/texlive/texmf-dist/tex/latex/l3backend/l3backend-pdftex.def" 1611959857 27097 58278863d97b10ab86e334b8da33df7a ""
  "/usr/share/texlive/texmf-dist/tex/latex/latexconfig/epstopdf-sys.cfg" 1279039959 678 4792914a8f45be57bb98413425e4c7af ""
  "/usr/share/texlive/texmf-dist/tex/latex/letltxmacro/letltxmacro.sty" 1575499565 5766 13a9e8766c47f30327caf893ece86ac8 ""
  "/usr/share/texlive/texmf-dist/tex/latex/mathtools/mathtools.sty" 1585083035 55731 4347f70fb23a75dbacb3c5fd21dd2675 ""
  "/usr/share/texlive/texmf-dist/tex/latex/mathtools/mhsetup.sty" 1585083035 5437 39f2bba90502a381bd48d78339c1a5f0 ""
  "/usr/share/texlive/texmf-dist/tex/latex/refcount/refcount.sty" 1576624809 9878 9e94e8fa600d95f9c7731bb21dfb67a4 ""
  "/usr/share/texlive/texmf-dist/tex/latex/rerunfilecheck/rerunfilecheck.sty" 1575674187 9715 b051d5b493d9fe5f4bc251462d039e5f ""
  "/usr/share/texlive/texmf-dist/tex/latex/tools/calc.sty" 1580683321 10216 5efd55f2010055e7b7875afd6a75be82 ""
  "/usr/share/texlive/texmf-dist/tex/latex/tools/indentfirst.sty" 1580683321 1619 d4cd7231755dd1dfa89af8ceddfb0e4d ""
  "/usr/share/texlive/texmf-dist/tex/latex/url/url.sty" 1388531844 12796 8edb7d69a20b857904dd0ea757c14ec9 ""
  "/usr/share/texlive/texmf-dist/tex/latex/xcolor/xcolor.sty" 1463002160 55589 34128738f682d033422ca125f82e5d62 ""
  "/usr/share/texlive/texmf-dist/web2c/texmf.cnf" 1613593815 38841 799d1dd9682a55ce442e10c99777ecc1 ""
  "/usr/share/texmf/web2c/texmf.cnf" 1613593815 38841 799d1dd9682a55ce442e10c99777ecc1 ""
  "/var/lib/texmf/fonts/map/pdftex/updmap/pdftex.map" 1637618898 128028 f533b797fba58d231669ea19e894e23e ""
  "/var/lib/texmf/web2c/pdftex/pdflatex.fmt" 1637975278 1284310 f2db030f1808808106b2695264d14b6f ""
  "Anotações.aux" 1654698069 22214 3dd880e171727d0cb9f5ac23bbf463b4 "pdflatex"
  "Anotações.out" 1654698069 6467 f656ded5b59ee45c392b28216c1c533c "pdflatex"
  "Anotações.tex" 1654698068 73784 36835e69e09c93906921030c760ed01a ""
  "Anotações.toc" 1654698069 8133 4546f3cc59a41f7e2d25d71ded4b2a50 "pdflatex"
  "images/128.jpg" 1654564696 6123 8c6ad75974e8f64f61af892a1124633a ""
  "images/16.jpg" 1654564706 6546 c377e86e5f0e06561081cb690b8698db ""
  "images/2.jpg" 1654564716 7601 21904aae248e4b9f639fbb0b3cd66a3f ""
  "images/32.jpg" 1654564703 6283 3af23d52ca8b62e2272ee38e799f4f4a ""
  "images/4.jpg" 1654564713 6867 9bc7ffcce6596cf718aa5f5863ca9cb3 ""
  "images/64.jpg" 1654564700 6166 72da54a3af670e3af45a10957fc544d8 ""
  "images/8.jpg" 1654564710 6487 292e28fbb54cd6307ea2d1c3a495836a ""
  "images/avg_gray.jpg" 1654522740 5898 08c5dcbd187b71c5c74e202cbdbcca23 ""
  "images/binaria.png" 1654518700 12923 89b174759f34e14a2d3bed1461d4c886 ""
  "images/bordas.jpg" 1654632274 8486 cc750b6d150ad03931f1a60ceea4aa0e ""
  "images/borrado11.jpg" 1654634888 3431 e0cabba9ba01b54a317787d1fe950c8e ""
  "images/borrado5.jpg" 1654634909 4381 9984dba71d35559a0af9f8cacc1556a0 ""
  "images/borrado7.jpg" 1654634903 3791 3307d214d87264eda29f899771a75876 ""
  "images/borrado9.jpg" 1654634895 3638 2aa3757301841172cb887bf857256df8 ""
  "images/claro.jpg" 1654625272 7462 d8f04c96c346cea0bf2ae3d7e7664f67 ""
  "images/colorida.png" 1654519359 369085 01148a3be1874d68e4d150d9d3c8640e ""
  "images/einstein256.jpg" 1654564692 5991 62c6a902c24b13c600d209639c623f68 ""
  "images/einsteinEscuro.jpg" 1654625266 5832 19b3bc20896507bbefc0fd8554c431bf ""
  "images/einsteinNitido.jpg" 1654561965 5991 62c6a902c24b13c600d209639c623f68 ""
  "images/einstein_spatial.jpg" 1654561971 4298 4de7675a75831c17ab96716ce5ff42af ""
  "images/freq.jpg" 1654691088 7944 d32ffa528901b4e5da8fa8c0781b3dbe ""
  "images/graylevel4.jpg" 1654623954 5798 79eceb5749fb8ed5a8b8dd3954cf1b6a ""
  "images/grayscale.jpg" 1654518718 13601 095f3183253ba7c60c56d4183f3ae381 ""
  "images/hist1.jpg" 1654617059 5013 0b687d0af227be0314d2a862baaf5e35 ""
  "images/histograma.jpg" 1654569397 19041 89bbc1916a6e7630d656a71cf6946eb7 ""
  "images/kirsch2.jpg" 1654649834 11335 7a305a4d2b7c32d5ac035492f176dfcb ""
  "images/kirsch3.jpg" 1654649838 11668 5d11ebb3d39ea20b4f15720dcd758903 ""
  "images/kirsch4.jpg" 1654649842 11152 f909fc687b547a3823ddc3ff02ec99f0 ""
  "images/kirsch5.jpg" 1654649845 11820 ee92ce4c54dd08b37159156e052da2a1 ""
  "images/kirsch6.jpg" 1654649849 11340 b54ce0b266430ed02ba720449d0582a2 ""
  "images/kirsch7.jpg" 1654649853 12179 9ba807d207cbe52cbdaef87675369d62 ""
  "images/kirsch8.jpg" 1654649857 11340 cb6bb0e5353e3c99593f6e6c0fdf86b4 ""
  "images/kirsch9.jpg" 1654649860 11530 b9d746a06db4b11ffec1bebfa4e368b8 ""
  "images/laplacian1.jpg" 1654686550 15092 e7d25e274b97d1e08a8c6703e9c683de ""
  "images/laplacian2.jpg" 1654686558 15611 dfabd81b783bce5632552c0c1af23822 ""
  "images/log.png" 1654624758 57648 9681ed2d483a6b1f5fbf4e4dc60c4a9f ""
  "images/minMax.png" 1654617945 60662 ceebb3f7b57208d73caed08cc7c93cd1 ""
  "images/nitido.jpg" 1654635970 9273 227beefc0777e19d052e65c016d96f6c ""
  "images/novo.png" 1654621757 115379 e28227523ddabd736c41a4d83ced2843 ""
  "images/origins.png" 1654617646 50392 19659dea1434dd9cc8c0b6a36416cbbd ""
  "images/otica.png" 1654516160 68550 97fed3d8dc4812d64471db92b0f9f134 ""
  "images/percentile.png" 1654617637 65890 b2f14319b5e377363c6ba2522d50dcb0 ""
  "images/prewitthori.jpg" 1654644802 15726 3c04f9d9195684c0d4999a94077252e1 ""
  "images/prewittvert.jpg" 1654644793 14280 62d4ceb20a4c09edb324f0d1bf405540 ""
  "images/prob3.jpg" 1654618218 4605 2614b7804c765924cffb881deced6ddb ""
  "images/rgb.jpg" 1654522730 8616 6520e057a41d45aad789f563c37ad20c ""
  "images/robinson1.jpg" 1654649352 8117 e7e9ba52683b5adfe23d4a6161b0ddee ""
  "images/robinson2.jpg" 1654649359 8557 bf38679b048d1a3de1c7cc3aca5db407 ""
  "images/robinson3.jpg" 1654649366 8109 c7bce373b0dc9d538004e81efcea357f ""
  "images/robinson4.jpg" 1654649375 8481 ac74a267222738365fb2cb610a77face ""
  "images/robinson5.jpg" 1654649380 8452 eb0b04623f49dfd547dddc5510c27042 ""
  "images/robinson6.jpg" 1654649386 8402 c4453d4be731edad33cf626a4b5f9b76 ""
  "images/robinson7.jpg" 1654649397 8003 daaba4af042e191a92f2dc922097442d ""
  "images/robinson8.jpg" 1654649404 8117 baec28a3b70263f37d4d8679d89b4936 ""
  "images/sobelhori.jpg" 1654645330 20135 940538463d1a9638e555474b4f0a8c5d ""
  "images/sobelvert.jpg" 1654645324 16530 14959fb354ccf21292ae75c7aecdca8e ""
  "images/velho.png" 1654621732 95470 60cf96edbdb87138bb6cac3bc709a27c ""
  "images/velhoHist.png" 1654621711 121905 d934a918dd7f86397aa8e21ee9581a33 ""
  "images/weighted_gray.jpg" 1654522756 7571 a90c92814feb6b323ae5fc455a373380 ""
  (generated)
  "Anotações.pdf"
  "/home/heitor/Documents/USP/IC/Estudos-Processamento-de-Imagens/Anotações/Anotações.pdf"
  "/home/heitor/Documents/USP/IC/Estudos-Processamento-de-Imagens/Anotações/Anotações.log"
  "Anotações.aux"
  "Anotações.toc"
  "Anotações.out"
  "Anotações.log"
